Effect of Region and Developed vs. Developing on COVID19 Death Rate
…
Above is the first six rows of the data to illustrate the format of the dataset. As we can see, it shows the first six days of data collected in Afghanistan. The data set is updated daily to include new cases, new deaths, and update the cumulative quantities.

## # A tibble: 229 × 4
##    Country             max_cases max_deaths death_rate_percentage
##    <chr>                   <int>      <int>                 <dbl>
##  1 Afghanistan            176201       7643                 4.34 
##  2 Albania                272663       3485                 1.28 
##  3 Algeria                265432       6864                 2.59 
##  4 American Samoa            555          0                 0    
##  5 Andorra                 38794        152                 0.392
##  6 Angola                  98927       1900                 1.92 
##  7 Anguilla                 2574          9                 0.350
##  8 Antigua and Barbuda      7466        135                 1.81 
##  9 Argentina             8971432     127187                 1.42 
## 10 Armenia                422021       8576                 2.03 
## # … with 219 more rows

The data set is now grouped by country to combine all of the days from the country into one row as the new cases variable will not be useful for the purpose of our data analysis. Now there will only be one row for each country instead of every country having a new row for a new day. The row for each country will now also show max cases, max deaths, and a new variable, death rate percentage is calculated in a new column by dividing deaths by cases so we can see the number of people who die based on the number who are infected. The variables are now country, max_cases which is the number or reported positive cases, max_deaths which is the total amount of deaths in the specific country and death_rate_percentage. This new variable will be helpful because since it is a percent, it eliminates the variability we will get due to the fact that every country has a different population number.

## # A tibble: 228 × 9
##    Country   max_cases max_deaths death_rate_perce… X             Classification
##    <chr>         <int>      <int>             <dbl> <chr>         <chr>         
##  1 Afghanis…    176201       7643             4.34  "Afghanistan… Developing    
##  2 Albania      272663       3485             1.28  "Albania    … Developing    
##  3 Algeria      265432       6864             2.59  "Algeria    … Developing    
##  4 American…       555          0             0     "American Sa… Developing    
##  5 Andorra       38794        152             0.392 "Andorra    … Developed     
##  6 Angola        98927       1900             1.92  "Angola     … Developing    
##  7 Anguilla       2574          9             0.350 "Anguilla   … Developing    
##  8 Antigua …      7466        135             1.81  "Antigua and… Developing    
##  9 Argentina   8971432     127187             1.42  "Argentina  … Developing    
## 10 Armenia      422021       8576             2.03  "Armenia    … Developing    
## # … with 218 more rows, and 3 more variables: Doc.Classification <chr>,
## #   Region <chr>, Population..mil. <dbl>

Next, we will use a data set that the “World Economic Situations and Prospects” (WESP) uses to classify countries as developed, in transition, or developing economies. We joined this data set with our previous data set by country so that now each country will be classified as a developed or developing economy. For the purpose of our data analysis, countries classified as in transition by the data set will be reclassified into the developing category. Region and population were also added as new variables.

## # A tibble: 23 × 9
##    Country      max_cases max_deaths death_rate_perc… X           Classification
##    <chr>            <int>      <int>            <dbl> <chr>       <chr>         
##  1 Holy See            26          0           0      "Holy See … Developed     
##  2 San Marino       14726        112           0.761  "San Marin… Developed     
##  3 Monaco            9778         51           0.522  "Monaco"    Developed     
##  4 Liechtenste…     13933         76           0.545  "Liechtens… Developed     
##  5 Northern Ma…     10379         30           0.289  "Northern … Developed     
##  6 Guernsey         15630         31           0.198  "Guernsey … Developed     
##  7 Andorra          38794        152           0.392  "Andorra  … Developed     
##  8 Isle of Man      24488         81           0.331  "Isle of M… Developed     
##  9 Jersey           40807        116           0.284  "Jersey   … Developed     
## 10 Iceland         162938         81           0.0497 "Iceland  … Developed     
## # … with 13 more rows, and 3 more variables: Doc.Classification <chr>,
## #   Region <chr>, Population..mil. <dbl>

This is a subset of our data that only includes countries classified as developed. We will then take the lowest half of the developed countries based on population so that we can work with a smaller data set. Our conclusions will be based on the lowest populations from both classification groups.

## # A tibble: 91 × 9
##    Country    max_cases max_deaths death_rate_perce… X            Classification
##    <chr>          <int>      <int>             <dbl> <chr>        <chr>         
##  1 Niue               1          0            0      "Niue"       Developing    
##  2 Saba             211          0            0      "Saba"       Developing    
##  3 Falkland …       118          0            0      "Falkland I… Developing    
##  4 Sint Eust…       472          3            0.636  "Sint Eusta… Developing    
##  5 Montserrat       166          2            1.20   "Montserrat" Developing    
##  6 Saint Pie…      1055          1            0.0948 "Saint Pier… Developing    
##  7 Cook Isla…       338          0            0      "Cook Islan… Developing    
##  8 Saint Bar…      3726          4            0.107  "Saint Bart… Developing    
##  9 Wallis an…       453          7            1.55   "Wallis and… Developing    
## 10 Palau           3899          6            0.154  "Palau"      Developing    
## # … with 81 more rows, and 3 more variables: Doc.Classification <chr>,
## #   Region <chr>, Population..mil. <dbl>

Another subset of data is created that only contains countries classified as developing. We will once again take the lowest half of countries based on population to use for further data analysis.

## # A tibble: 114 × 3
##    Classification Region          death_rate_percentage
##    <chr>          <chr>                           <dbl>
##  1 Developed      Europe                         0     
##  2 Developed      Europe                         0.761 
##  3 Developed      Europe                         0.522 
##  4 Developed      Europe                         0.545 
##  5 Developed      Western Pacific                0.289 
##  6 Developed      Europe                         0.198 
##  7 Developed      Europe                         0.392 
##  8 Developed      Europe                         0.331 
##  9 Developed      Europe                         0.284 
## 10 Developed      Europe                         0.0497
## # … with 104 more rows
…
